mini-project-01 – STA 9750 2024 Submission Material
…
# A tibble: 1 × 3
  Agency                    Mode        total_upt
  <chr>                     <chr>           <dbl>
1 MTA New York City Transit Heavy Rail 1793073801

Which transit system (agency and mode) had the highest farebox recovery, defined as the highest ratio of Total Fares to Expenses?

highest_farebox_recovery <- USAGE_AND_FINANCIALS |>
  group_by(Agency, Mode) |>
  mutate(farebox_recovery = `Total Fares`/Expenses) |>
  arrange(desc(farebox_recovery)) |>
  slice_max(farebox_recovery, n = 1)
print(highest_farebox_recovery)

# A tibble: 14,982 × 12
# Groups:   Agency, Mode [1,129]
   `NTD ID` Agency             metro_area Mode    UPT    VRM total_upt total_vrm
      <dbl> <chr>              <chr>      <chr> <dbl>  <dbl>     <dbl>     <dbl>
 1    20122 Academy Lines, In… New York-… Comm… 49675 221458     49675    221458
 2    20122 Academy Lines, In… New York-… Comm… 60934 210912     60934    210912
 3    20122 Academy Lines, In… New York-… Comm… 72225 213052     72225    213052
 4    20122 Academy Lines, In… New York-… Comm… 75308 213052     75308    213052
 5    20122 Academy Lines, In… New York-… Comm… 78415 223705     78415    223705
 6    20122 Academy Lines, In… New York-… Comm… 82937 223705     82937    223705
 7    20122 Academy Lines, In… New York-… Comm… 83318 223705     83318    223705
 8    20122 Academy Lines, In… New York-… Comm… 86041 223705     86041    223705
 9    20122 Academy Lines, In… New York-… Comm… 86438 245010     86438    245010
10    20122 Academy Lines, In… New York-… Comm… 88085 223705     88085    223705
# ℹ 14,972 more rows
# ℹ 4 more variables: `Agency Name` <chr>, `Total Fares` <dbl>, Expenses <dbl>,
#   farebox_recovery <dbl>
…
