mp01 – STA 9750 2024 Submission Material
…
Task 4: Explore and Analyze

Monthly ridership trends

Analyzing monthly ridership data helps identify patterns in transit usage. This information can be used to optimize service schedules. For example, during peak months (summer vacations of holiday seasons), the transit system should consider increase the service frequency to avoid overcrowded train cars. The transit system could also possibly utilize the off-peak months for service adjustments.

monthly_ridership_change <- USAGE |>
  group_by(month) |>
  summarize(total_upt = sum(UPT, na.rm = TRUE)) |>
  arrange(month)
print(monthly_ridership_change)

# A tibble: 271 × 2
   month      total_upt
   <date>         <dbl>
 1 2002-01-01 699178187
 2 2002-02-01 668249485
 3 2002-03-01 722225681
 4 2002-04-01 724195235
 5 2002-05-01 733270430
 6 2002-06-01 672758285
 7 2002-07-01 695696215
 8 2002-08-01 689692542
 9 2002-09-01 711601434
10 2002-10-01 745842361
# ℹ 261 more rows
…
